%YAML 1.1
%TAG !u! tag:unity3d.com,2011:
--- !u!1045 &1
EditorBuildSettings:
  m_ObjectHideFlags: 0
  serializedVersion: 2
  m_Scenes:
  - enabled: 1
    path: Assets/Scenes/Start Menu.unity
    guid: 9225b728ac37da44cbf6708881c304bc
  - enabled: 1
    path: Assets/Scenes/BallAttracintAllBalls.unity
    guid: 4844fe96773a9c6438f49876eaf98949
  - enabled: 1
    path: Assets/Scenes/BallAttracintSomeBalls.unity
    guid: 9fc0d4010bbf28b4594072e72b8655ab
  m_configObjects: {}
